<?xml version="1.0" encoding="utf-8"?>
<!-- Generator: Adobe Illustrator 15.0.0, SVG Export Plug-In . SVG Version: 6.00 Build 0)  -->
<!DOCTYPE svg PUBLIC "-//W3C//DTD SVG 1.1//EN" "http://www.w3.org/Graphics/SVG/1.1/DTD/svg11.dtd">
<svg version="1.1" id="Layer_1" xmlns="http://www.w3.org/2000/svg" xmlns:xlink="http://www.w3.org/1999/xlink" x="0px" y="0px"
	 width="24px" height="24px" viewBox="0 0 24 24" enable-background="new 0 0 24 24" xml:space="preserve">
<path fill="#FFFFFF" d="M12,12c3.314,0,6-2.685,6-6s-2.686-6-6-6C8.685,0,6,2.685,6,6S8.685,12,12,12z M12,15c-4.005,0-12,2.01-12,6
	v3h24v-3C24,17.01,16.005,15,12,15z"/>
<path fill="none" d="M0,0h24v24H0V0z"/>
</svg>
